^D:\USERS\MICHAEL\DESKTOP\PHYSX-4.0\PHYSX\COMPILER\VC15WIN64\CMAKEFILES\3.13.4\COMPILERIDC\DEBUG\CMAKECCOMPILERID.OBJ
D:\WINDOWS KITS\10\LIB\10.0.17134.0\UM\X64\KERNEL32.LIB
D:\WINDOWS KITS\10\LIB\10.0.17134.0\UM\X64\USER32.LIB
D:\WINDOWS KITS\10\LIB\10.0.17134.0\UM\X64\GDI32.LIB
D:\WINDOWS KITS\10\LIB\10.0.17134.0\UM\X64\WINSPOOL.LIB
D:\WINDOWS KITS\10\LIB\10.0.17134.0\UM\X64\COMDLG32.LIB
D:\WINDOWS KITS\10\LIB\10.0.17134.0\UM\X64\ADVAPI32.LIB
D:\WINDOWS KITS\10\LIB\10.0.17134.0\UM\X64\SHELL32.LIB
D:\WINDOWS KITS\10\LIB\10.0.17134.0\UM\X64\OLE32.LIB
D:\WINDOWS KITS\10\LIB\10.0.17134.0\UM\X64\OLEAUT32.LIB
D:\WINDOWS KITS\10\LIB\10.0.17134.0\UM\X64\UUID.LIB
D:\WINDOWS KITS\10\LIB\10.0.17134.0\UM\X64\ODBC32.LIB
D:\WINDOWS KITS\10\LIB\10.0.17134.0\UM\X64\ODBCCP32.LIB
D:\USERS\MICHAEL\DESKTOP\PHYSX-4.0\PHYSX\COMPILER\VC15WIN64\CMAKEFILES\3.13.4\COMPILERIDC\DEBUG\CMAKECCOMPILERID.OBJ
C:\WINDOWS\GLOBALIZATION\SORTING\SORTDEFAULT.NLS
D:\PROGRAM FILES (X86)\MICROSOFT VISUAL STUDIO\2017\COMMUNITY\VC\TOOLS\MSVC\14.15.26726\LIB\X64\MSVCRTD.LIB
D:\PROGRAM FILES (X86)\MICROSOFT VISUAL STUDIO\2017\COMMUNITY\VC\TOOLS\MSVC\14.15.26726\LIB\X64\OLDNAMES.LIB
D:\PROGRAM FILES (X86)\MICROSOFT VISUAL STUDIO\2017\COMMUNITY\VC\TOOLS\MSVC\14.15.26726\LIB\X64\VCRUNTIMED.LIB
D:\WINDOWS KITS\10\LIB\10.0.17134.0\UCRT\X64\UCRTD.LIB
D:\WINDOWS KITS\10\BIN\10.0.17134.0\X86\RC.EXE
D:\PROGRAM FILES (X86)\MICROSOFT VISUAL STUDIO\2017\COMMUNITY\VC\TOOLS\MSVC\14.15.26726\BIN\HOSTX86\X86\CVTRES.EXE
C:\WINDOWS\SYSTEM32\TZRES.DLL
